\relax 
\bibstyle{plain}
\@writefile{toc}{\contentsline {section}{\numberline {I}Introduction}{1}}
\@writefile{toc}{\contentsline {section}{\numberline {II}Methods, Techniques, and Design}{1}}
\@writefile{toc}{\contentsline {section}{\numberline {III}Parts}{1}}
\@writefile{toc}{\contentsline {section}{\numberline {IV}Testing and Design Verification}{1}}
\@writefile{toc}{\contentsline {section}{\numberline {V}Discussion}{1}}
\@writefile{toc}{\contentsline {section}{\numberline {VI}Conclusions}{1}}
\@writefile{toc}{\contentsline {section}{\numberline {VII}Acknowledgements}{1}}
